<?xml version="1.0" encoding="UTF-8" standalone="no"?>
<svg
   xmlns:dc="http://purl.org/dc/elements/1.1/"
   xmlns:cc="http://creativecommons.org/ns#"
   xmlns:rdf="http://www.w3.org/1999/02/22-rdf-syntax-ns#"
   xmlns:svg="http://www.w3.org/2000/svg"
   xmlns="http://www.w3.org/2000/svg"
   xmlns:sodipodi="http://sodipodi.sourceforge.net/DTD/sodipodi-0.dtd"
   xmlns:inkscape="http://www.inkscape.org/namespaces/inkscape"
   width="1468.921"
   height="1582.1382"
   id="svg2995"
   version="1.1"
   inkscape:version="1.0.2 (e86c870879, 2021-01-15)"
   sodipodi:docname="Logo_Emmabuntus-clean-006-b.svg">
  <defs
     id="defs2997" />
  <sodipodi:namedview
     id="base"
     pagecolor="#ffffff"
     bordercolor="#666666"
     borderopacity="1.0"
     inkscape:pageopacity="0"
     inkscape:pageshadow="2"
     inkscape:zoom="0.5"
     inkscape:cx="1226.0171"
     inkscape:cy="859.44453"
     inkscape:document-units="px"
     inkscape:current-layer="g1209"
     showgrid="false"
     showguides="true"
     inkscape:guide-bbox="true"
     units="mm"
     inkscape:window-width="2560"
     inkscape:window-height="1386"
     inkscape:window-x="0"
     inkscape:window-y="27"
     inkscape:window-maximized="1"
     inkscape:document-rotation="0"
     inkscape:pagecheckerboard="true"
     fit-margin-top="0"
     fit-margin-left="0"
     fit-margin-right="0"
     fit-margin-bottom="0" />
  <metadata
     id="metadata3000">
    <rdf:RDF>
      <cc:Work
         rdf:about="">
        <dc:format>image/svg+xml</dc:format>
        <dc:type
           rdf:resource="http://purl.org/dc/dcmitype/StillImage" />
        <dc:title />
      </cc:Work>
    </rdf:RDF>
  </metadata>
  <g
     inkscape:label="Calque 1"
     inkscape:groupmode="layer"
     id="layer1"
     transform="translate(825.07515,576.94876)"
     style="display:inline">
    <g
       id="g1209">
      <circle
         style="display:inline;fill:#0c5580;fill-opacity:1;stroke:none;stroke-width:889.625;stroke-linecap:square;stroke-miterlimit:4;stroke-dasharray:none;stroke-opacity:1"
         id="path1134-3-6-3-7-3"
         cx="-526.09668"
         cy="227.60678"
         r="162.25163" />
      <circle
         style="display:inline;fill:#0c5580;fill-opacity:1;stroke:none;stroke-width:889.625;stroke-linecap:square;stroke-miterlimit:4;stroke-dasharray:none;stroke-opacity:1"
         id="path1134-3-6-3-7-5"
         cx="306.95831"
         cy="-228.71469"
         r="162.25163" />
      <circle
         style="display:inline;fill:#0c5580;fill-opacity:1;stroke:none;stroke-width:889.625;stroke-linecap:square;stroke-miterlimit:4;stroke-dasharray:none;stroke-opacity:1"
         id="path1134-3-6-3-7"
         cx="328.39612"
         cy="671.77209"
         r="162.25163" />
      <path
         id="path1132"
         style="fill:none;stroke:#0c5580;stroke-width:174.575;stroke-linecap:square;stroke-miterlimit:4;stroke-dasharray:none;stroke-opacity:1"
         d="M 13.765689,-223.77334 A 450.82003,446.48029 0 0 0 -436.62605,222.70763 450.82003,446.48029 0 0 0 14.19426,669.18856 450.82003,446.48029 0 0 0 465.01463,222.70763 450.82003,446.48029 0 0 0 14.19426,-223.77334 a 450.82003,446.48029 0 0 0 -0.428571,0 z" />
      <circle
         style="fill:#ffd700;fill-opacity:1;stroke:none;stroke-width:632.363;stroke-linecap:square;stroke-miterlimit:4;stroke-dasharray:none;stroke-opacity:1"
         id="path1134"
         cx="306.95831"
         cy="-228.71469"
         r="115.33159" />
      <circle
         style="display:inline;fill:#ffd700;fill-opacity:1;stroke:none;stroke-width:632.363;stroke-linecap:square;stroke-miterlimit:4;stroke-dasharray:none;stroke-opacity:1"
         id="path1134-3"
         cx="328.39612"
         cy="671.77209"
         r="115.33159" />
      <circle
         style="display:inline;fill:#ffd700;fill-opacity:1;stroke:none;stroke-width:632.363;stroke-linecap:square;stroke-miterlimit:4;stroke-dasharray:none;stroke-opacity:1"
         id="path1134-3-6"
         cx="-526.09668"
         cy="227.60678"
         r="115.33159" />
      <path
         style="fill:#ffd700;fill-opacity:1;stroke:none;stroke-width:0.288183"
         d="M -2.3841736,505.38906 C -64.405903,502.5255 -123.38224,479.55135 -171.19729,439.62807 c -36.9387,-30.84191 -65.88578,-71.43565 -82.76373,-116.06315 -3.83536,-10.14115 -7.86496,-22.99774 -10.07092,-32.13236 -0.49757,-2.06051 -0.96144,-3.90849 -1.03077,-4.10659 -0.1005,-0.28752 13.47858,-0.36022 67.27208,-0.36022 h 67.398 l 2.02318,4.10659 c 5.49454,11.15291 13.2056,22.81112 21.3962,32.3485 3.93922,4.5871 11.909228,12.52508 16.507388,16.44132 15.505865,13.20589 32.972411,23.03555 52.286748,29.42542 37.0097624,12.24412 77.431833,9.87728 113.256841,-6.6314 22.011585,-10.14333 42.181033,-26.29745 57.263213,-45.86354 28.66436,-37.1862 38.79423,-85.47832 27.51614,-131.17748 -5.6599,-22.93386 -16.36087,-43.96906 -31.71576,-62.34425 -3.63837,-4.35398 -11.3559,-12.28776 -15.68482,-16.12431 C 98.949403,95.175698 83.983388,85.960249 67.067807,79.198129 46.269497,70.883829 22.22844,67.030771 0.4975784,68.528889 -20.359774,69.966805 -38.817094,74.825072 -57.138927,83.699713 c -16.601601,8.041421 -30.204095,17.817987 -43.085603,30.966897 -11.82541,12.07108 -20.62155,24.42743 -28.13216,39.51898 l -2.11549,4.25069 h -67.17513 c -36.94635,0 -67.24885,-0.0736 -67.33887,-0.16363 -0.19653,-0.19658 2.1687,-9.48562 3.97913,-15.62734 14.4658,-49.073324 41.88673,-93.257253 79.2604,-127.713838 46.28899,-42.676236 104.468076,-68.531264 166.970613,-74.202571 9.3268804,-0.846303 17.2209944,-1.099098 29.250497,-0.936679 11.794702,0.15924 17.808588,0.516015 27.953672,1.658356 86.035638,9.687574 162.946758,58.43796218 208.732698,132.30597 34.94877,56.384032 48.88501,123.474672 39.37973,189.578212 -9.9408,69.13268 -45.5486,132.49129 -99.69835,177.39833 -32.2794,26.76965 -70.71491,46.20985 -111.57397,56.43283 -26.317539,6.58464 -54.867005,9.4598 -81.6524136,8.22314 z"
         id="path1897" />
    </g>
  </g>
</svg>
